<svg width="25" height="24" viewBox="0 0 25 24" fill="none" xmlns="http://www.w3.org/2000/svg">
<path d="M7.5 17L17.5 7" stroke="#233893" stroke-width="2" stroke-linecap="round" stroke-linejoin="round"/>
<path d="M7.5 7H17.5V17" stroke="#233893" stroke-width="2" stroke-linecap="round" stroke-linejoin="round"/>
</svg>
