<svg width="80" height="59" viewBox="0 0 80 59" fill="none" xmlns="http://www.w3.org/2000/svg">
<path d="M28.375 29.4999L72.625 29.4999" stroke="black" stroke-width="2"/>
<path d="M57.875 44.25L72.625 29.5L57.875 14.75" stroke="black" stroke-width="2"/>
</svg>
