<?xml version="1.0" encoding="iso-8859-1"?>
<!-- Generator: Adobe Illustrator 18.1.1, SVG Export Plug-In . SVG Version: 6.00 Build 0)  -->
<svg version="1.1" id="Capa_1" xmlns="http://www.w3.org/2000/svg" xmlns:xlink="http://www.w3.org/1999/xlink" x="0px" y="0px"
	 viewBox="0 0 32 32" style="enable-background:new 0 0 32 32;" xml:space="preserve">
<g>
	<g id="map_x5F_pin_x5F_fill">
		<g>
			<g>
				<path style="fill:#ffffff;" d="M23.07,2.929c-3.906-3.906-10.234-3.906-14.141,0c-3.906,3.904-3.906,10.238,0,14.141
					c0,0,7.066,6.93,7.066,14.93c0-8,7.074-14.93,7.074-14.93C26.977,13.168,26.977,6.833,23.07,2.929z M15.996,14.005
					c-2.207,0-3.996-1.789-3.996-4s1.789-4,3.996-4c2.215,0,4.004,1.789,4.004,4S18.211,14.005,15.996,14.005z"/>
			</g>
		</g>
	</g>
</g>
<g>
</g>
<g>
</g>
<g>
</g>
<g>
</g>
<g>
</g>
<g>
</g>
<g>
</g>
<g>
</g>
<g>
</g>
<g>
</g>
<g>
</g>
<g>
</g>
<g>
</g>
<g>
</g>
<g>
</g>
</svg>
