<svg width="14" height="18" viewBox="0 0 14 18" fill="none" xmlns="http://www.w3.org/2000/svg">
<path d="M9.696 14.664V12.6H5.16V10.872H6.864C11.112 10.872 13.128 8.832 13.128 5.592C13.128 2.376 11.112 0.24 6.864 0.24H2.568V8.64H0.48V10.872H2.568V12.6H0.48V14.664H2.568V18H5.16V14.664H9.696ZM5.16 2.616H6.864C9.816 2.616 10.536 4.128 10.536 5.544C10.536 6.96 9.816 8.64 6.864 8.64H5.16V2.616Z" fill="#233893"/>
</svg>
