<svg width="80" height="59" viewBox="0 0 80 59" fill="none" xmlns="http://www.w3.org/2000/svg">
<path d="M51.625 29.4999L7.375 29.4999" stroke="black" stroke-width="2"/>
<path d="M22.125 44.25L7.375 29.5L22.125 14.75" stroke="black" stroke-width="2"/>
</svg>
