<svg width="33" height="33" viewBox="0 0 33 33" fill="none" xmlns="http://www.w3.org/2000/svg">
<path fill-rule="evenodd" clip-rule="evenodd" d="M18.8332 7.16669C18.8332 6.6144 18.3855 6.16669 17.8332 6.16669C17.2809 6.16669 16.8332 6.6144 16.8332 7.16669V10.1667H13.8332C13.2809 10.1667 12.8332 10.6144 12.8332 11.1667C12.8332 11.719 13.2809 12.1667 13.8332 12.1667H16.8332V15.1667C16.8332 15.719 17.2809 16.1667 17.8332 16.1667C18.3855 16.1667 18.8332 15.719 18.8332 15.1667V12.1667H21.8332C22.3855 12.1667 22.8332 11.719 22.8332 11.1667C22.8332 10.6144 22.3855 10.1667 21.8332 10.1667H18.8332V7.16669ZM29.0521 7.51334C29.5971 7.60319 29.966 8.11778 29.8761 8.66271L28.0355 19.8254C27.8763 20.7913 27.0412 21.5 26.0622 21.5H9.60769C8.6287 21.5 7.7936 20.7913 7.63433 19.8254L5.93182 9.50002H3.1665C2.61422 9.50002 2.1665 9.05231 2.1665 8.50002C2.1665 7.94774 2.61422 7.50002 3.1665 7.50002H5.93182C6.91081 7.50002 7.7459 8.2087 7.90517 9.17464L9.60769 19.5L26.0622 19.5L27.9028 8.33733C27.9926 7.7924 28.5072 7.42349 29.0521 7.51334ZM8.8332 25.8334C8.8332 24.5447 9.87787 23.5 11.1665 23.5C12.4552 23.5 13.4999 24.5447 13.4999 25.8334C13.4999 27.122 12.4552 28.1667 11.1665 28.1667C9.87787 28.1667 8.8332 27.122 8.8332 25.8334ZM11.1665 25.5C10.9824 25.5 10.8332 25.6493 10.8332 25.8334C10.8332 26.0174 10.9824 26.1667 11.1665 26.1667C11.3506 26.1667 11.4999 26.0174 11.4999 25.8334C11.4999 25.6493 11.3506 25.5 11.1665 25.5ZM24.4999 23.5C23.2112 23.5 22.1665 24.5447 22.1665 25.8334C22.1665 27.122 23.2112 28.1667 24.4999 28.1667C25.7885 28.1667 26.8332 27.122 26.8332 25.8334C26.8332 24.5447 25.7885 23.5 24.4999 23.5ZM24.1665 25.8334C24.1665 25.6493 24.3158 25.5 24.4999 25.5C24.684 25.5 24.8332 25.6493 24.8332 25.8334C24.8332 26.0174 24.684 26.1667 24.4999 26.1667C24.3158 26.1667 24.1665 26.0174 24.1665 25.8334Z" fill="white"/>
</svg>
