<svg width="32" height="32" viewBox="0 0 32 32" fill="none" xmlns="http://www.w3.org/2000/svg">
<path fill-rule="evenodd" clip-rule="evenodd" d="M24 4.33334C24.5523 4.33334 25 4.78106 25 5.33334V26.6667C25 27.219 24.5523 27.6667 24 27.6667C23.4477 27.6667 23 27.219 23 26.6667V5.33334C23 4.78106 23.4477 4.33334 24 4.33334ZM16 12.3333C16.5523 12.3333 17 12.7811 17 13.3333V26.6667C17 27.219 16.5523 27.6667 16 27.6667C15.4477 27.6667 15 27.219 15 26.6667V13.3333C15 12.7811 15.4477 12.3333 16 12.3333ZM9 21.3333C9 20.7811 8.55228 20.3333 8 20.3333C7.44772 20.3333 7 20.7811 7 21.3333V26.6667C7 27.219 7.44772 27.6667 8 27.6667C8.55228 27.6667 9 27.219 9 26.6667V21.3333Z" fill="#233893"/>
</svg>
