<svg width="32" height="32" viewBox="0 0 32 32" fill="none" xmlns="http://www.w3.org/2000/svg">
<path fill-rule="evenodd" clip-rule="evenodd" d="M10.0001 5C6.42746 5 3.66675 7.73548 3.66675 11.1935C3.66675 13.3306 4.63741 15.3511 6.55978 17.6566C8.493 19.9751 11.2776 22.4543 14.7314 25.5264L14.7328 25.5277L16.0026 26.6616L17.268 25.5402C17.2684 25.5398 17.2688 25.5395 17.2692 25.5391C20.7226 22.4607 23.5069 19.9785 25.4402 17.6585C27.3627 15.3512 28.3334 13.3306 28.3334 11.1935C28.3334 7.73548 25.5727 5 22.0001 5C19.9757 5 18.0226 5.92922 16.7552 7.38907L16.0001 8.25893L15.2449 7.38907C13.9776 5.92922 12.0244 5 10.0001 5ZM1.66675 11.1935C1.66675 6.59477 5.35937 3 10.0001 3C12.2411 3 14.3974 3.87324 16.0001 5.31104C17.6028 3.87324 19.759 3 22.0001 3C26.6408 3 30.3334 6.59477 30.3334 11.1935C30.3334 14.0002 29.0374 16.4657 26.9767 18.9388C24.9474 21.3741 22.0701 23.9389 18.7017 26.9414L18.5988 27.0331L18.5967 27.0351L16.6633 28.7484L15.9976 29.3384L15.334 28.7459L13.4021 27.0208L13.4007 27.0195L13.3332 26.9594C9.94995 23.9501 7.06001 21.3795 5.02372 18.9374C2.96275 16.4657 1.66675 14.0002 1.66675 11.1935Z" fill="#233893"/>
</svg>
