<svg width="33" height="33" viewBox="0 0 33 33" fill="none" xmlns="http://www.w3.org/2000/svg">
<path fill-rule="evenodd" clip-rule="evenodd" d="M16.9408 3.37256C16.9408 3.92484 16.4931 4.37256 15.9408 4.37256L1.9408 4.37256C1.38851 4.37256 0.940796 3.92484 0.940796 3.37256C0.940796 2.82027 1.38851 2.37256 1.9408 2.37256H15.9408C16.4931 2.37256 16.9408 2.82027 16.9408 3.37256ZM11.6075 10.0392C11.6075 10.5915 11.1597 11.0392 10.6075 11.0392H1.9408C1.38851 11.0392 0.940796 10.5915 0.940796 10.0392C0.940796 9.48694 1.38851 9.03923 1.9408 9.03923H10.6075C11.1597 9.03923 11.6075 9.48694 11.6075 10.0392ZM7.9408 17.7059C8.49308 17.7059 8.9408 17.2582 8.9408 16.7059C8.9408 16.1536 8.49308 15.7059 7.9408 15.7059H1.9408C1.38851 15.7059 0.940796 16.1536 0.940796 16.7059C0.940796 17.2582 1.38851 17.7059 1.9408 17.7059H7.9408ZM21.6075 23.0392C26.0257 23.0392 29.6075 19.4575 29.6075 15.0392C29.6075 10.6209 26.0257 7.03923 21.6075 7.03923C17.1892 7.03923 13.6075 10.6209 13.6075 15.0392C13.6075 19.4575 17.1892 23.0392 21.6075 23.0392ZM25.934 24.0574C29.2905 22.4441 31.6075 19.0123 31.6075 15.0392C31.6075 9.51638 27.1303 5.03923 21.6075 5.03923C16.0846 5.03923 11.6075 9.51638 11.6075 15.0392C11.6075 20.5621 16.0846 25.0392 21.6075 25.0392C22.4501 25.0392 23.2684 24.935 24.0501 24.7388L27.2135 32.1201C27.4311 32.6277 28.019 32.8629 28.5266 32.6453C29.0342 32.4277 29.2694 31.8399 29.0518 31.3322L25.934 24.0574Z" fill="#233893"/>
</svg>
