<svg width="25" height="25" viewBox="0 0 25 25" fill="none" xmlns="http://www.w3.org/2000/svg">
<path fill-rule="evenodd" clip-rule="evenodd" d="M17.954 2.41421C18.735 1.63316 20.0013 1.63316 20.7824 2.41421L22.5855 4.21737C23.3666 4.99842 23.3666 6.26474 22.5855 7.04579L9.5329 20.0984C9.15782 20.4735 8.64912 20.6842 8.11868 20.6842L4.31553 20.6842L4.31553 16.8811C4.31553 16.3506 4.52625 15.8419 4.90132 15.4668L17.954 2.41421Z" stroke="#B3B3B3" stroke-width="2"/>
<path d="M16 4L21 9" stroke="#B3B3B3" stroke-width="2"/>
</svg>
