<svg width="14" height="14" viewBox="0 0 14 14" fill="none" xmlns="http://www.w3.org/2000/svg">
<path d="M7.00016 0.333313L9.06016 4.50665L13.6668 5.17998L10.3335 8.42665L11.1202 13.0133L7.00016 10.8466L2.88016 13.0133L3.66683 8.42665L0.333496 5.17998L4.94016 4.50665L7.00016 0.333313Z" fill="#CECECE"/>
</svg>
