<svg width="70" height="70" viewBox="0 0 70 70" fill="none" xmlns="http://www.w3.org/2000/svg">
<circle cx="35" cy="35" r="35" fill="#233893"/>
<path d="M48.4579 47.9812H46.7219C46.6346 47.9812 46.5487 48.0041 46.4731 48.0478C46.3974 48.0914 46.3345 48.1543 46.2908 48.2299L45.4231 49.7333C45.3794 49.8089 45.3564 49.8947 45.3564 49.982C45.3564 50.0693 45.3794 50.1551 45.4231 50.2307L46.291 51.734C46.3347 51.8097 46.3975 51.8725 46.4732 51.9162C46.5489 51.9598 46.6347 51.9828 46.7221 51.9827H48.458C48.5454 51.9828 48.6312 51.9598 48.7069 51.9162C48.7826 51.8725 48.8455 51.8097 48.8891 51.734L49.7571 50.2307C49.8008 50.1551 49.8238 50.0693 49.8238 49.982C49.8238 49.8947 49.8008 49.8089 49.7571 49.7333L48.8885 48.2299C48.8448 48.1543 48.7821 48.0916 48.7065 48.0479C48.6309 48.0042 48.5452 47.9812 48.4579 47.9812ZM48.1707 50.9879H47.0091L46.4288 49.982L47.0091 48.9761H48.1707L48.751 49.982L48.1707 50.9879Z" fill="white"/>
<path d="M36.0752 36.4939C34.6285 36.1334 33.2363 35.5815 31.9355 34.8529L30.9016 34.2848V33.817C31.8718 32.9508 32.5134 31.7764 32.7181 30.4921L33.0866 28.1408C33.3935 28.1106 33.6839 27.9881 33.9197 27.7895C34.1555 27.5908 34.3256 27.3254 34.4076 27.0282C34.4895 26.731 34.4795 26.4159 34.3788 26.1245C34.2781 25.8331 34.0914 25.5791 33.8435 25.3959C34.0185 24.8827 34.1516 24.3561 34.2414 23.8214H34.4115C34.7593 23.8218 35.0959 23.698 35.3605 23.4722C35.6251 23.2465 35.8004 22.9336 35.8546 22.59C35.9089 22.2464 35.8387 21.8947 35.6566 21.5983C35.4744 21.302 35.1924 21.0804 34.8614 20.9736C34.7943 19.2521 34.2143 17.59 33.1957 16.2005C32.2402 14.8969 30.9061 13.9195 29.375 13.4014L29.4293 12.8776C29.4365 12.8084 29.4291 12.7383 29.4075 12.6721C29.3859 12.6059 29.3506 12.5449 29.3039 12.4932C29.2573 12.4414 29.2003 12.4001 29.1366 12.3718C29.073 12.3435 29.0041 12.3289 28.9344 12.3289H25.1557C25.0861 12.3289 25.0172 12.3435 24.9536 12.3718C24.8899 12.4001 24.8329 12.4415 24.7863 12.4932C24.7397 12.545 24.7044 12.6059 24.6828 12.6721C24.6612 12.7383 24.6538 12.8084 24.661 12.8776L24.7153 13.4015C23.1831 13.9211 21.8486 14.901 20.8943 16.2075C19.879 17.5958 19.2997 19.2548 19.2302 20.9734C18.899 21.08 18.6168 21.3015 18.4345 21.5978C18.2523 21.8941 18.1819 22.2459 18.2361 22.5895C18.2903 22.9332 18.4655 23.2462 18.7301 23.4721C18.9947 23.6979 19.3313 23.8218 19.6793 23.8214H19.8074C19.8974 24.2321 20.0207 24.6348 20.176 25.0256L20.3645 25.4995C20.1477 25.6987 19.9932 25.9564 19.9196 26.2415C19.846 26.5265 19.8565 26.8268 19.9498 27.1061C20.0431 27.3853 20.2152 27.6316 20.4453 27.8152C20.6755 27.9988 20.9538 28.1119 21.2468 28.1408L21.6154 30.4921C21.8028 31.6693 22.358 32.7569 23.2014 33.5992V34.4574L22.1665 34.9771C22.1032 34.9944 22.044 35.0241 21.9924 35.0646L21.8907 35.1155C20.6566 35.7236 19.3559 36.1861 18.015 36.4939C16.4904 36.8561 15.133 37.723 14.1632 38.9539C13.1934 40.1848 12.6682 41.7074 12.6729 43.2744V53.4492C12.6729 53.5812 12.7253 53.7077 12.8186 53.801C12.9119 53.8943 13.0384 53.9467 13.1703 53.9467H40.9197C41.0517 53.9467 41.1782 53.8943 41.2715 53.801C41.3648 53.7077 41.4172 53.5812 41.4172 53.4492V43.2744C41.4218 41.7074 40.8967 40.1848 39.9269 38.9539C38.9571 37.723 37.5998 36.8561 36.0752 36.4939ZM17.6334 52.9518H13.6677V43.2744C13.6641 42.0408 14.0437 40.8365 14.7541 39.828C15.4645 38.8194 16.4706 38.0564 17.6334 37.6444V52.9518ZM24.4034 14.5909C24.7189 14.4476 25.0457 14.3306 25.3804 14.2409C25.4949 14.2105 25.5948 14.1402 25.662 14.0426C25.7293 13.9451 25.7595 13.8268 25.7473 13.7089L25.7074 13.3238H28.3827L28.3427 13.7089C28.3305 13.8268 28.3608 13.9451 28.428 14.0426C28.4953 14.1402 28.5952 14.2105 28.7097 14.2409C29.0443 14.3306 29.3711 14.4474 29.6867 14.5904V15.2702C29.6864 16.0805 29.4417 16.872 28.9844 17.541C28.5271 18.21 27.8786 18.7255 27.1237 19.0201C26.3291 18.7494 25.6394 18.2364 25.1514 17.5534C24.6635 16.8703 24.4019 16.0516 24.4034 15.2121V14.5909ZM21.6944 16.7987C22.1684 16.1557 22.748 15.5976 23.4085 15.1483V15.2121C23.4067 16.2724 23.7414 17.3059 24.3644 18.1639C24.9875 19.0218 25.8667 19.6598 26.8756 19.9861L26.9786 20.0192C27.0813 20.0527 27.1922 20.0518 27.2943 20.0166C28.2828 19.6764 29.1405 19.0361 29.7477 18.1851C30.3549 17.3341 30.6813 16.3148 30.6815 15.2694V15.1465C31.3419 15.5944 31.9216 16.151 32.396 16.7927C33.2733 17.9909 33.7821 19.4189 33.86 20.9019H20.2306C20.3111 19.4213 20.8196 17.9959 21.6944 16.7987ZM19.6793 22.8265C19.6177 22.8273 19.5566 22.8159 19.4994 22.7929C19.4423 22.7699 19.3903 22.7358 19.3465 22.6926C19.3027 22.6493 19.2679 22.5978 19.2441 22.541C19.2204 22.4842 19.2081 22.4232 19.2081 22.3616C19.2081 22.3001 19.2204 22.2391 19.2441 22.1823C19.2679 22.1255 19.3027 22.074 19.3465 22.0307C19.3903 21.9875 19.4423 21.9533 19.4994 21.9303C19.5566 21.9074 19.6177 21.8959 19.6793 21.8968H34.4108C34.4724 21.8959 34.5335 21.9074 34.5906 21.9303C34.6477 21.9533 34.6997 21.9875 34.7435 22.0307C34.7874 22.074 34.8222 22.1255 34.8459 22.1823C34.8697 22.2391 34.8819 22.3001 34.8819 22.3616C34.8819 22.4232 34.8697 22.4842 34.8459 22.541C34.8222 22.5978 34.7874 22.6493 34.7435 22.6926C34.6997 22.7358 34.6477 22.7699 34.5906 22.7929C34.5335 22.8159 34.4724 22.8273 34.4108 22.8265H32.6432C32.6425 22.8265 32.6419 22.8265 32.6412 22.8265H19.6793ZM33.2315 23.8214C33.2092 23.9403 33.1841 24.0588 33.1569 24.1768V23.8214H33.2315ZM21.1761 23.8214V24.848L21.1004 24.6578C20.9922 24.3852 20.9018 24.1058 20.8299 23.8214H21.1761ZM22.5983 30.338L22.165 27.5739C22.1466 27.4567 22.087 27.35 21.9969 27.2729C21.9068 27.1958 21.7921 27.1534 21.6735 27.1534H21.3989C21.3284 27.1543 21.2584 27.1412 21.193 27.1148C21.1276 27.0885 21.0681 27.0494 21.018 26.9998C20.9678 26.9503 20.928 26.8913 20.9008 26.8263C20.8736 26.7612 20.8596 26.6914 20.8596 26.6209C20.8596 26.5504 20.8736 26.4806 20.9008 26.4156C20.928 26.3505 20.9678 26.2915 21.018 26.242C21.0681 26.1924 21.1276 26.1534 21.193 26.127C21.2584 26.1006 21.3284 26.0875 21.3989 26.0884H21.6735C21.8054 26.0884 21.932 26.036 22.0252 25.9427C22.1185 25.8494 22.1709 25.7229 22.1709 25.591V23.8214H32.1622V25.591C32.1622 25.7229 32.2146 25.8494 32.3079 25.9427C32.4012 26.036 32.5277 26.0884 32.6596 26.0884H32.9208C33.0046 26.1485 33.1051 26.1808 33.2083 26.1807C33.2159 26.1807 33.2234 26.1793 33.2311 26.179C33.3259 26.2426 33.3977 26.3349 33.4361 26.4425C33.4744 26.55 33.4771 26.667 33.4438 26.7762C33.4106 26.8854 33.3431 26.981 33.2513 27.049C33.1596 27.1169 33.0484 27.1535 32.9343 27.1534H32.6596C32.541 27.1535 32.4264 27.1958 32.3363 27.2729C32.2462 27.35 32.1866 27.4567 32.1682 27.5739L31.7349 30.338C31.5641 31.427 31.01 32.4191 30.1724 33.1355C29.3348 33.852 28.2688 34.2457 27.1666 34.2457C26.0644 34.2457 24.9984 33.852 24.1608 33.1355C23.3232 32.4191 22.7691 31.427 22.5983 30.338ZM24.1963 34.6204V34.3906C24.3027 34.457 24.4113 34.5205 24.5227 34.5799C25.3361 35.0146 26.2442 35.242 27.1666 35.242C28.0889 35.242 28.997 35.0146 29.8105 34.5799C29.8428 34.5627 29.8745 34.5447 29.9065 34.5268V36.5242C29.5417 36.9168 29.0999 37.23 28.6086 37.4441C28.1174 37.6582 27.5873 37.7687 27.0514 37.7687C26.5155 37.7687 25.9854 37.6582 25.4941 37.4441C25.0029 37.23 24.561 36.9168 24.1963 36.5242V34.8878C24.2209 34.8004 24.2209 34.7079 24.1963 34.6204ZM22.7952 35.7745L23.2014 35.5706V36.7129C23.2015 36.8306 23.2433 36.9445 23.3194 37.0343C23.7786 37.5761 24.3504 38.0115 24.9948 38.3101C25.6393 38.6087 26.3411 38.7634 27.0514 38.7634C27.7617 38.7634 28.4634 38.6087 29.1079 38.3101C29.7524 38.0115 30.3241 37.5761 30.7833 37.0343C30.8595 36.9444 30.9013 36.8305 30.9013 36.7127V35.4194L31.2947 35.6355V39.4118C31.2947 40.5389 30.847 41.6198 30.05 42.4167C29.253 43.2137 28.1721 43.6614 27.045 43.6614C25.9179 43.6614 24.837 43.2137 24.0401 42.4167C23.2431 41.6198 22.7954 40.5389 22.7954 39.4118L22.7952 35.7745ZM31.4671 52.9518H23.4498V48.5946C24.7159 49.1387 26.0791 49.4205 27.4571 49.4228C28.8351 49.4251 30.1992 49.148 31.4671 48.6082V52.9518ZM35.4618 52.9518H32.462V47.8229C32.462 47.7373 32.4399 47.6532 32.3979 47.5787C32.3559 47.5042 32.2954 47.4417 32.2223 47.3974C32.1491 47.3531 32.0657 47.3284 31.9802 47.3257C31.8947 47.323 31.81 47.3424 31.7342 47.382C30.4142 48.0717 28.9466 48.4306 27.4573 48.4279C25.968 48.4251 24.5017 48.0608 23.1844 47.3662C23.1085 47.3262 23.0237 47.3064 22.938 47.3089C22.8523 47.3113 22.7687 47.3359 22.6953 47.3802C22.6219 47.4244 22.5612 47.4869 22.5191 47.5616C22.4769 47.6362 22.4548 47.7205 22.4548 47.8062V52.9518H18.6282V37.365C19.7163 37.0917 20.7779 36.7221 21.8005 36.2606V39.4123C21.8005 40.8032 22.3531 42.1372 23.3366 43.1207C24.3201 44.1042 25.6541 44.6568 27.045 44.6568C28.436 44.6568 29.7699 44.1042 30.7534 43.1207C31.737 42.1372 32.2895 40.8032 32.2895 39.4123V36.1584C33.3053 36.6624 34.3677 37.0662 35.4618 37.364V52.9518ZM40.4223 52.9518H36.4567V37.6444C37.6195 38.0565 38.6256 38.8195 39.336 39.828C40.0464 40.8365 40.426 42.0408 40.4223 43.2744V52.9518Z" fill="white"/>
<path d="M27.0453 40.8589C27.1749 40.8589 27.3017 40.8205 27.4096 40.7485C27.5174 40.6764 27.6015 40.574 27.6511 40.4542C27.7007 40.3344 27.7137 40.2025 27.6884 40.0753C27.6631 39.9482 27.6007 39.8313 27.509 39.7396C27.4173 39.6479 27.3004 39.5855 27.1732 39.5602C27.046 39.5349 26.9142 39.5479 26.7944 39.5975C26.6746 39.6471 26.5722 39.7312 26.5001 39.839C26.4281 39.9469 26.3896 40.0736 26.3896 40.2033C26.3898 40.3771 26.459 40.5438 26.5819 40.6667C26.7048 40.7896 26.8714 40.8587 27.0453 40.8589Z" fill="white"/>
<path d="M27.0453 42.9159C27.1749 42.9159 27.3017 42.8775 27.4096 42.8054C27.5174 42.7334 27.6014 42.631 27.6511 42.5112C27.7007 42.3914 27.7137 42.2595 27.6884 42.1323C27.6631 42.0051 27.6007 41.8883 27.509 41.7966C27.4173 41.7049 27.3005 41.6424 27.1733 41.6171C27.0461 41.5918 26.9143 41.6048 26.7944 41.6544C26.6746 41.7041 26.5722 41.7881 26.5002 41.8959C26.4281 42.0037 26.3896 42.1305 26.3896 42.2602C26.3898 42.434 26.4589 42.6007 26.5819 42.7236C26.7048 42.8465 26.8714 42.9157 27.0453 42.9159Z" fill="white"/>
<path d="M53.459 28.2906L53.4388 28.269C53.3832 28.2096 53.314 28.1648 53.2371 28.1385C53.1603 28.1121 53.0781 28.1049 52.9979 28.1176C52.9176 28.1303 52.8417 28.1625 52.7768 28.2113C52.7118 28.2601 52.6598 28.3241 52.6253 28.3977L50.1747 30.8483L47.0013 30.259L46.4119 27.0855L48.9477 24.55C48.9939 24.5039 49.0306 24.449 49.0556 24.3886C49.0807 24.3282 49.0935 24.2635 49.0935 24.1982C49.0935 24.1328 49.0807 24.0681 49.0556 24.0077C49.0306 23.9473 48.9939 23.8925 48.9477 23.8463L48.9261 23.8247C48.8442 23.7429 48.7362 23.6922 48.6209 23.6815C47.3958 23.5662 46.1674 23.8654 45.1326 24.5312C44.0978 25.1969 43.3163 26.1907 42.9133 27.3534C42.5104 28.5161 42.5093 29.7803 42.9103 30.9437C43.3112 32.107 44.091 33.1022 45.1247 33.7697V46.8838C44.4809 47.3956 44.0122 48.0951 43.7837 48.8851C43.5551 49.6752 43.5779 50.5168 43.849 51.2933C44.1201 52.0698 44.6259 52.7428 45.2965 53.219C45.9671 53.6952 46.7692 53.951 47.5917 53.951C48.4142 53.951 49.2163 53.6952 49.8869 53.219C50.5575 52.7428 51.0634 52.0698 51.3344 51.2933C51.6055 50.5168 51.6283 49.6752 51.3998 48.8851C51.1712 48.0951 50.7026 47.3956 50.0588 46.8838V34.2896C51.1708 33.8683 52.116 33.0974 52.7522 32.0927C53.3883 31.088 53.681 29.9038 53.5862 28.7185C53.5998 28.6422 53.5954 28.5637 53.5733 28.4894C53.5512 28.4152 53.5121 28.3471 53.459 28.2906ZM50.5604 49.9831C50.5604 50.5704 50.3863 51.1445 50.06 51.6328C49.7338 52.1211 49.27 52.5017 48.7274 52.7265C48.1849 52.9512 47.5878 53.01 47.0118 52.8955C46.4358 52.7809 45.9067 52.4981 45.4914 52.0828C45.0761 51.6676 44.7933 51.1385 44.6787 50.5625C44.5642 49.9865 44.623 49.3894 44.8477 48.8468C45.0724 48.3043 45.453 47.8405 45.9413 47.5142C46.4297 47.1879 47.0038 47.0138 47.5911 47.0138C48.3783 47.0147 49.133 47.3278 49.6897 47.8844C50.2464 48.4411 50.5595 49.1958 50.5604 49.9831ZM46.1188 46.3035V34.2762C47.0556 34.6393 48.0741 34.7383 49.0633 34.5624V46.3035C48.1185 45.924 47.0636 45.924 46.1188 46.3035ZM51.2894 32.3365C50.7877 32.8379 50.1746 33.2136 49.5002 33.4331C48.8257 33.6525 48.1089 33.7095 47.4082 33.5993C46.7075 33.4891 46.0428 33.2149 45.4682 32.7991C44.8937 32.3832 44.4255 31.8374 44.1019 31.2063C43.7783 30.5751 43.6084 29.8764 43.6062 29.1671C43.6039 28.4578 43.7693 27.7581 44.0888 27.1248C44.4084 26.4916 44.873 25.9428 45.4449 25.5233C46.0168 25.1038 46.6798 24.8253 47.3797 24.7106L45.5233 26.5671C45.4662 26.6242 45.4238 26.6943 45.3999 26.7714C45.376 26.8486 45.3712 26.9303 45.386 27.0097L46.0856 30.7764C46.104 30.8751 46.1519 30.966 46.2229 31.037C46.2939 31.1081 46.3848 31.1559 46.4835 31.1743L50.2502 31.8739C50.3296 31.8887 50.4113 31.8839 50.4884 31.86C50.5655 31.8361 50.6356 31.7937 50.6927 31.7367L52.5498 29.8796C52.3988 30.8109 51.9577 31.6707 51.2894 32.3366V32.3365Z" fill="white"/>
<path d="M26.2396 17.2991H28.0242C28.1561 17.2991 28.2826 17.2467 28.3759 17.1534C28.4692 17.0602 28.5216 16.9336 28.5216 16.8017C28.5216 16.6698 28.4692 16.5433 28.3759 16.45C28.2826 16.3567 28.1561 16.3043 28.0242 16.3043H26.2396C26.1077 16.3043 25.9812 16.3567 25.8879 16.45C25.7946 16.5433 25.7422 16.6698 25.7422 16.8017C25.7422 16.9336 25.7946 17.0602 25.8879 17.1534C25.9812 17.2467 26.1077 17.2991 26.2396 17.2991Z" fill="white"/>
<path d="M26.2396 15.6527H28.0242C28.1561 15.6527 28.2826 15.6003 28.3759 15.507C28.4692 15.4137 28.5216 15.2872 28.5216 15.1553C28.5216 15.0233 28.4692 14.8968 28.3759 14.8035C28.2826 14.7102 28.1561 14.6578 28.0242 14.6578H26.2396C26.1077 14.6578 25.9812 14.7102 25.8879 14.8035C25.7946 14.8968 25.7422 15.0233 25.7422 15.1553C25.7422 15.2872 25.7946 15.4137 25.8879 15.507C25.9812 15.6003 26.1077 15.6527 26.2396 15.6527Z" fill="white"/>
</svg>
